HEBR_video_547_tek0066CH1.csv

Model,DPO4032
Firmware Version,2.30

Point Format,Y
Horizontal Units,S
Horizontal Scale,0.4
Sample Interval,0.0004
Record Length,10000
Gating,0.0% to 100.0%
Probe Attenuation,1
Vertical Units,V
Vertical Offset,-0.113
Vertical Scale,0.01
Label,
TIME,CH1
-4.0000e-01,-0.112873
-3.9960e-01,-0.11267
-3.9920e-01,-0.112653
-3.9880e-01,-0.113328
-3.9840e-01,-0.113417
-3.9800e-01,-0.113147
-3.9760e-01,-0.113306
-3.9720e-01,-0.112841
-3.9680e-01,-0.112717
-3.9640e-01,-0.113264
-3.9600e-01,-0.112692
-3.9560e-01,-0.112727
-3.9520e-01,-0.112831
-3.9480e-01,-0.112842
-3.9440e-01,-0.112975
-3.9400e-01,-0.112636
-3.9360e-01,-0.113216
-3.9320e-01,-0.113027
-3.9280e-01,-0.112477
-3.9240e-01,-0.112594
-3.9200e-01,-0.112539
-3.9160e-01,-0.11242
-3.9120e-01,-0.112995
-3.9080e-01,-0.113102
-3.9040e-01,-0.112886
-3.9000e-01,-0.112991
-3.8960e-01,-0.113761
-3.8920e-01,-0.113189
-3.8880e-01,-0.112455
-3.8840e-01,-0.113425
-3.8800e-01,-0.113297
-3.8760e-01,-0.112961
-3.8720e-01,-0.113384
-3.8680e-01,-0.112833
-3.8640e-01,-0.11315
-3.8600e-01,-0.112927
-3.8560e-01,-0.113414
-3.8520e-01,-0.112994
-3.8480e-01,-0.112247
-3.8440e-01,-0.112809
-3.8400e-01,-0.11295
-3.8360e-01,-0.11252
-3.8320e-01,-0.113236
-3.8280e-01,-0.113272
-3.8240e-01,-0.113228
-3.8200e-01,-0.112959
-3.8160e-01,-0.112908
-3.8120e-01,-0.113069
-3.8080e-01,-0.113219
-3.8040e-01,-0.112627
-3.8000e-01,-0.112309
-3.7960e-01,-0.112852
-3.7920e-01,-0.112206
-3.7880e-01,-0.113245
-3.7840e-01,-0.113692
-3.7800e-01,-0.11307
-3.7760e-01,-0.113383
-3.7720e-01,-0.112377
-3.7680e-01,-0.112888
-3.7640e-01,-0.112702
-3.7600e-01,-0.113558
-3.7560e-01,-0.113197
-3.7520e-01,-0.112647
-3.7480e-01,-0.112928
-3.7440e-01,-0.112616
-3.7400e-01,-0.113223
-3.7360e-01,-0.112364
-3.7320e-01,-0.112927
-3.7280e-01,-0.112989
-3.7240e-01,-0.112744
-3.7200e-01,-0.113242
-3.7160e-01,-0.113752
-3.7120e-01,-0.112884
-3.7080e-01,-0.112769
-3.7040e-01,-0.112867
-3.7000e-01,-0.113044
-3.6960e-01,-0.11295
-3.6920e-01,-0.113083
-3.6880e-01,-0.113103
-3.6840e-01,-0.113233
-3.6800e-01,-0.112992
-3.6760e-01,-0.112442
-3.6720e-01,-0.113036
-3.6680e-01,-0.1135
-3.6640e-01,-0.112905
-3.6600e-01,-0.112958
-3.6560e-01,-0.11308
-3.6520e-01,-0.112703
-3.6480e-01,-0.112595
-3.6440e-01,-0.112591
-3.6400e-01,-0.112919
-3.6360e-01,-0.113523
-3.6320e-01,-0.113364
-3.6280e-01,-0.113306
-3.6240e-01,-0.113197
-3.6200e-01,-0.113228
-3.6160e-01,-0.113383
-3.6120e-01,-0.112453
-3.6080e-01,-0.112838
-3.6040e-01,-0.113113
-3.6000e-01,-0.113241
-3.5960e-01,-0.113094
-3.5920e-01,-0.112781
-3.5880e-01,-0.112853
-3.5840e-01,-0.113231
-3.5800e-01,-0.113103
-3.5760e-01,-0.113014
-3.5720e-01,-0.112869
-3.5680e-01,-0.113047
-3.5640e-01,-0.113178
-3.5600e-01,-0.113081
-3.5560e-01,-0.113348
-3.5520e-01,-0.112798
-3.5480e-01,-0.113317
-3.5440e-01,-0.112831
-3.5400e-01,-0.112912
-3.5360e-01,-0.112841
-3.5320e-01,-0.112536
-3.5280e-01,-0.112917
-3.5240e-01,-0.112694
-3.5200e-01,-0.112939
-3.5160e-01,-0.112981
-3.5120e-01,-0.113361
-3.5080e-01,-0.112756
-3.5040e-01,-0.113267
-3.5000e-01,-0.112613
-3.4960e-01,-0.113058
-3.4920e-01,-0.113405
-3.4880e-01,-0.11308
-3.4840e-01,-0.112791
-3.4800e-01,-0.112156
-3.4760e-01,-0.112758
-3.4720e-01,-0.113417
-3.4680e-01,-0.112453
-3.4640e-01,-0.113555
-3.4600e-01,-0.112981
-3.4560e-01,-0.113306
-3.4520e-01,-0.113344
-3.4480e-01,-0.112552
-3.4440e-01,-0.112923
-3.4400e-01,-0.113272
-3.4360e-01,-0.112845
-3.4320e-01,-0.112834
-3.4280e-01,-0.113363
-3.4240e-01,-0.112408
-3.4200e-01,-0.11228
-3.4160e-01,-0.112808
-3.4120e-01,-0.111714
-3.4080e-01,-0.112972
-3.4040e-01,-0.112603
-3.4000e-01,-0.113002
-3.3960e-01,-0.112463
-3.3920e-01,-0.112636
-3.3880e-01,-0.113216
-3.3840e-01,-0.112659
-3.3800e-01,-0.112945
-3.3760e-01,-0.113031
-3.3720e-01,-0.113014
-3.3680e-01,-0.113166
-3.3640e-01,-0.112703
-3.3600e-01,-0.112866
-3.3560e-01,-0.112833
-3.3520e-01,-0.113206
-3.3480e-01,-0.113013
-3.3440e-01,-0.112473
-3.3400e-01,-0.11335
-3.3360e-01,-0.112759
-3.3320e-01,-0.112563
-3.3280e-01,-0.112839
-3.3240e-01,-0.113041
-3.3200e-01,-0.113078
-3.3160e-01,-0.112978
-3.3120e-01,-0.112972
-3.3080e-01,-0.113406
-3.3040e-01,-0.112456
-3.3000e-01,-0.112548
-3.2960e-01,-0.113381
-3.2920e-01,-0.112908
-3.2880e-01,-0.112203
-3.2840e-01,-0.112755
-3.2800e-01,-0.112152
-3.2760e-01,-0.112625
-3.2720e-01,-0.113542
-3.2680e-01,-0.113383
-3.2640e-01,-0.113128
-3.2600e-01,-0.112952
-3.2560e-01,-0.113278
-3.2520e-01,-0.112875
-3.2480e-01,-0.112469
-3.2440e-01,-0.113036
-3.2400e-01,-0.112539
-3.2360e-01,-0.112084
-3.2320e-01,-0.112525
-3.2280e-01,-0.112639
-3.2240e-01,-0.113202
-3.2200e-01,-0.112731
-3.2160e-01,-0.113144
-3.2120e-01,-0.11358
-3.2080e-01,-0.112734
-3.2040e-01,-0.112441
-3.2000e-01,-0.113392
-3.1960e-01,-0.113591
-3.1920e-01,-0.113025
-3.1880e-01,-0.112548
-3.1840e-01,-0.112358
-3.1800e-01,-0.11268
-3.1760e-01,-0.11277
-3.1720e-01,-0.1131
-3.1680e-01,-0.113169
-3.1640e-01,-0.112975
-3.1600e-01,-0.113173
-3.1560e-01,-0.112797
-3.1520e-01,-0.113006
-3.1480e-01,-0.113025
-3.1440e-01,-0.113186
-3.1400e-01,-0.112542
-3.1360e-01,-0.112738
-3.1320e-01,-0.112181
-3.1280e-01,-0.113094
-3.1240e-01,-0.112917
-3.1200e-01,-0.112495
-3.1160e-01,-0.11312
-3.1120e-01,-0.112783
-3.1080e-01,-0.112742
-3.1040e-01,-0.113091
-3.1000e-01,-0.112561
-3.0960e-01,-0.113
-3.0920e-01,-0.112972
-3.0880e-01,-0.112897
-3.0840e-01,-0.112517
-3.0800e-01,-0.113156
-3.0760e-01,-0.112411
-3.0720e-01,-0.113412
-3.0680e-01,-0.113139
-3.0640e-01,-0.112473
-3.0600e-01,-0.112259
-3.0560e-01,-0.113145
-3.0520e-01,-0.112756
-3.0480e-01,-0.112791
-3.0440e-01,-0.112828
-3.0400e-01,-0.112638
-3.0360e-01,-0.11257
-3.0320e-01,-0.112756
-3.0280e-01,-0.112873
-3.0240e-01,-0.113014
-3.0200e-01,-0.112853
-3.0160e-01,-0.112728
-3.0120e-01,-0.112366
-3.0080e-01,-0.112653
-3.0040e-01,-0.112989
-3.0000e-01,-0.1129
-2.9960e-01,-0.11283
-2.9920e-01,-0.112641
-2.9880e-01,-0.112841
-2.9840e-01,-0.112786
-2.9800e-01,-0.11318
-2.9760e-01,-0.113089
-2.9720e-01,-0.113266
-2.9680e-01,-0.112859
-2.9640e-01,-0.11268
-2.9600e-01,-0.112106
-2.9560e-01,-0.112797
-2.9520e-01,-0.113473
-2.9480e-01,-0.112753
-2.9440e-01,-0.1124
-2.9400e-01,-0.11318
-2.9360e-01,-0.113317
-2.9320e-01,-0.112564
-2.9280e-01,-0.1123
-2.9240e-01,-0.113545
-2.9200e-01,-0.113083
-2.9160e-01,-0.113213
-2.9120e-01,-0.113283
-2.9080e-01,-0.112798
-2.9040e-01,-0.112214
-2.9000e-01,-0.112775
-2.8960e-01,-0.112711
-2.8920e-01,-0.113306
-2.8880e-01,-0.11257
-2.8840e-01,-0.113609
-2.8800e-01,-0.113006
-2.8760e-01,-0.112723
-2.8720e-01,-0.11265
-2.8680e-01,-0.112731
-2.8640e-01,-0.112864
-2.8600e-01,-0.112558
-2.8560e-01,-0.112872
-2.8520e-01,-0.113306
-2.8480e-01,-0.113242
-2.8440e-01,-0.112647
-2.8400e-01,-0.113153
-2.8360e-01,-0.112594
-2.8320e-01,-0.113072
-2.8280e-01,-0.112816
-2.8240e-01,-0.112791
-2.8200e-01,-0.112453
-2.8160e-01,-0.113058
-2.8120e-01,-0.113523
-2.8080e-01,-0.112214
-2.8040e-01,-0.112514
-2.8000e-01,-0.112758
-2.7960e-01,-0.113536
-2.7920e-01,-0.112973
-2.7880e-01,-0.112808
-2.7840e-01,-0.113448
-2.7800e-01,-0.112981
-2.7760e-01,-0.112733
-2.7720e-01,-0.112536
-2.7680e-01,-0.112939
-2.7640e-01,-0.112745
-2.7600e-01,-0.112798
-2.7560e-01,-0.112973
-2.7520e-01,-0.112809
-2.7480e-01,-0.113172
-2.7440e-01,-0.112858
-2.7400e-01,-0.112953
-2.7360e-01,-0.113633
-2.7320e-01,-0.113248
-2.7280e-01,-0.11295
-2.7240e-01,-0.112508
-2.7200e-01,-0.112291
-2.7160e-01,-0.11335
-2.7120e-01,-0.113314
-2.7080e-01,-0.112616
-2.7040e-01,-0.112463
-2.7000e-01,-0.113144
-2.6960e-01,-0.113145
-2.6920e-01,-0.113142
-2.6880e-01,-0.11305
-2.6840e-01,-0.112681
-2.6800e-01,-0.112886
-2.6760e-01,-0.112642
-2.6720e-01,-0.112753
-2.6680e-01,-0.112864
-2.6640e-01,-0.11358
-2.6600e-01,-0.112698
-2.6560e-01,-0.113108
-2.6520e-01,-0.112833
-2.6480e-01,-0.1127
-2.6440e-01,-0.112787
-2.6400e-01,-0.113037
-2.6360e-01,-0.112963
-2.6320e-01,-0.112397
-2.6280e-01,-0.112736
-2.6240e-01,-0.112669
-2.6200e-01,-0.113283
-2.6160e-01,-0.112942
-2.6120e-01,-0.113122
-2.6080e-01,-0.112909
-2.6040e-01,-0.112698
-2.6000e-01,-0.112989
-2.5960e-01,-0.112844
-2.5920e-01,-0.112778
-2.5880e-01,-0.112819
-2.5840e-01,-0.112755
-2.5800e-01,-0.113589
-2.5760e-01,-0.112466
-2.5720e-01,-0.112528
-2.5680e-01,-0.113059
-2.5640e-01,-0.11243
-2.5600e-01,-0.112639
-2.5560e-01,-0.112684
-2.5520e-01,-0.11333
-2.5480e-01,-0.112786
-2.5440e-01,-0.112658
-2.5400e-01,-0.113306
-2.5360e-01,-0.112714
-2.5320e-01,-0.113103
-2.5280e-01,-0.113392
-2.5240e-01,-0.113242
-2.5200e-01,-0.113252
-2.5160e-01,-0.113195
-2.5120e-01,-0.113608
-2.5080e-01,-0.112159
-2.5040e-01,-0.113122
-2.5000e-01,-0.113067
-2.4960e-01,-0.113598
-2.4920e-01,-0.113661
-2.4880e-01,-0.11367
-2.4840e-01,-0.113017
-2.4800e-01,-0.112898
-2.4760e-01,-0.112766
-2.4720e-01,-0.112614
-2.4680e-01,-0.113264
-2.4640e-01,-0.113725
-2.4600e-01,-0.112344
-2.4560e-01,-0.112667
-2.4520e-01,-0.112486
-2.4480e-01,-0.113717
-2.4440e-01,-0.112689
-2.4400e-01,-0.113386
-2.4360e-01,-0.113133
-2.4320e-01,-0.11255
-2.4280e-01,-0.112825
-2.4240e-01,-0.112563
-2.4200e-01,-0.112569
-2.4160e-01,-0.113044
-2.4120e-01,-0.1136
-2.4080e-01,-0.112692
-2.4040e-01,-0.113144
-2.4000e-01,-0.113013
-2.3960e-01,-0.113069
-2.3920e-01,-0.112878
-2.3880e-01,-0.113197
-2.3840e-01,-0.113131
-2.3800e-01,-0.112159
-2.3760e-01,-0.113328
-2.3720e-01,-0.112648
-2.3680e-01,-0.112942
-2.3640e-01,-0.112231
-2.3600e-01,-0.112683
-2.3560e-01,-0.113556
-2.3520e-01,-0.112845
-2.3480e-01,-0.113242
-2.3440e-01,-0.112936
-2.3400e-01,-0.113133
-2.3360e-01,-0.113186
-2.3320e-01,-0.112983
-2.3280e-01,-0.113425
-2.3240e-01,-0.11305
-2.3200e-01,-0.113261
-2.3160e-01,-0.112989
-2.3120e-01,-0.11308
-2.3080e-01,-0.113144
-2.3040e-01,-0.113005
-2.3000e-01,-0.11305
-2.2960e-01,-0.111881
-2.2920e-01,-0.112567
-2.2880e-01,-0.112583
-2.2840e-01,-0.113242
-2.2800e-01,-0.112997
-2.2760e-01,-0.112603
-2.2720e-01,-0.112872
-2.2680e-01,-0.112486
-2.2640e-01,-0.113403
-2.2600e-01,-0.112969
-2.2560e-01,-0.113067
-2.2520e-01,-0.112756
-2.2480e-01,-0.112559
-2.2440e-01,-0.112966
-2.2400e-01,-0.113472
-2.2360e-01,-0.113316
-2.2320e-01,-0.112498
-2.2280e-01,-0.113444
-2.2240e-01,-0.112994
-2.2200e-01,-0.112519
-2.2160e-01,-0.113077
-2.2120e-01,-0.113136
-2.2080e-01,-0.112503
-2.2040e-01,-0.113553
-2.2000e-01,-0.112777
-2.1960e-01,-0.113872
-2.1920e-01,-0.113113
-2.1880e-01,-0.113092
-2.1840e-01,-0.11272
-2.1800e-01,-0.112842
-2.1760e-01,-0.113598
-2.1720e-01,-0.112986
-2.1680e-01,-0.112969
-2.1640e-01,-0.113066
-2.1600e-01,-0.112995
-2.1560e-01,-0.113297
-2.1520e-01,-0.1131
-2.1480e-01,-0.112994
-2.1440e-01,-0.112636
-2.1400e-01,-0.113191
-2.1360e-01,-0.113263
-2.1320e-01,-0.112541
-2.1280e-01,-0.113284
-2.1240e-01,-0.112528
-2.1200e-01,-0.113445
-2.1160e-01,-0.112323
-2.1120e-01,-0.112353
-2.1080e-01,-0.112978
-2.1040e-01,-0.113475
-2.1000e-01,-0.113739
-2.0960e-01,-0.112595
-2.0920e-01,-0.112373
-2.0880e-01,-0.113164
-2.0840e-01,-0.112745
-2.0800e-01,-0.112547
-2.0760e-01,-0.112023
-2.0720e-01,-0.113141
-2.0680e-01,-0.112994
-2.0640e-01,-0.112905
-2.0600e-01,-0.112842
-2.0560e-01,-0.113209
-2.0520e-01,-0.113661
-2.0480e-01,-0.113091
-2.0440e-01,-0.113233
-2.0400e-01,-0.112917
-2.0360e-01,-0.112525
-2.0320e-01,-0.113553
-2.0280e-01,-0.113109
-2.0240e-01,-0.113145
-2.0200e-01,-0.113598
-2.0160e-01,-0.1132
-2.0120e-01,-0.113005
-2.0080e-01,-0.112716
-2.0040e-01,-0.112623
-2.0000e-01,-0.112402
-1.9960e-01,-0.112658
-1.9920e-01,-0.112611
-1.9880e-01,-0.113373
-1.9840e-01,-0.112844
-1.9800e-01,-0.113013
-1.9760e-01,-0.112769
-1.9720e-01,-0.112559
-1.9680e-01,-0.112648
-1.9640e-01,-0.1128
-1.9600e-01,-0.11245
-1.9560e-01,-0.112691
-1.9520e-01,-0.113455
-1.9480e-01,-0.112561
-1.9440e-01,-0.112342
-1.9400e-01,-0.11308
-1.9360e-01,-0.112908
-1.9320e-01,-0.113306
-1.9280e-01,-0.112194
-1.9240e-01,-0.112569
-1.9200e-01,-0.113338
-1.9160e-01,-0.112348
-1.9120e-01,-0.113608
-1.9080e-01,-0.113086
-1.9040e-01,-0.112953
-1.9000e-01,-0.112525
-1.8960e-01,-0.112422
-1.8920e-01,-0.112855
-1.8880e-01,-0.113531
-1.8840e-01,-0.112789
-1.8800e-01,-0.112659
-1.8760e-01,-0.112787
-1.8720e-01,-0.113158
-1.8680e-01,-0.112677
-1.8640e-01,-0.113308
-1.8600e-01,-0.1123
-1.8560e-01,-0.112161
-1.8520e-01,-0.112969
-1.8480e-01,-0.112964
-1.8440e-01,-0.113489
-1.8400e-01,-0.112895
-1.8360e-01,-0.112561
-1.8320e-01,-0.112794
-1.8280e-01,-0.112803
-1.8240e-01,-0.113067
-1.8200e-01,-0.113203
-1.8160e-01,-0.112406
-1.8120e-01,-0.112778
-1.8080e-01,-0.113556
-1.8040e-01,-0.113078
-1.8000e-01,-0.112977
-1.7960e-01,-0.111619
-1.7920e-01,-0.11213
-1.7880e-01,-0.113558
-1.7840e-01,-0.113241
-1.7800e-01,-0.112384
-1.7760e-01,-0.112928
-1.7720e-01,-0.112669
-1.7680e-01,-0.11372
-1.7640e-01,-0.113244
-1.7600e-01,-0.112472
-1.7560e-01,-0.11282
-1.7520e-01,-0.113666
-1.7480e-01,-0.112441
-1.7440e-01,-0.113405
-1.7400e-01,-0.113316
-1.7360e-01,-0.112498
-1.7320e-01,-0.112745
-1.7280e-01,-0.112809
-1.7240e-01,-0.112547
-1.7200e-01,-0.112977
-1.7160e-01,-0.112723
-1.7120e-01,-0.113492
-1.7080e-01,-0.112583
-1.7040e-01,-0.112873
-1.7000e-01,-0.112964
-1.6960e-01,-0.112688
-1.6920e-01,-0.113416
-1.6880e-01,-0.113433
-1.6840e-01,-0.112389
-1.6800e-01,-0.112827
-1.6760e-01,-0.112052
-1.6720e-01,-0.112758
-1.6680e-01,-0.113058
-1.6640e-01,-0.112388
-1.6600e-01,-0.11283
-1.6560e-01,-0.112734
-1.6520e-01,-0.112947
-1.6480e-01,-0.112992
-1.6440e-01,-0.113316
-1.6400e-01,-0.112658
-1.6360e-01,-0.112906
-1.6320e-01,-0.113133
-1.6280e-01,-0.112984
-1.6240e-01,-0.113202
-1.6200e-01,-0.112884
-1.6160e-01,-0.113089
-1.6120e-01,-0.113083
-1.6080e-01,-0.112723
-1.6040e-01,-0.113123
-1.6000e-01,-0.112702
-1.5960e-01,-0.112798
-1.5920e-01,-0.112759
-1.5880e-01,-0.112508
-1.5840e-01,-0.112356
-1.5800e-01,-0.112256
-1.5760e-01,-0.112525
-1.5720e-01,-0.112747
-1.5680e-01,-0.112598
-1.5640e-01,-0.113417
-1.5600e-01,-0.112914
-1.5560e-01,-0.113083
-1.5520e-01,-0.112983
-1.5480e-01,-0.113402
-1.5440e-01,-0.112164
-1.5400e-01,-0.112925
-1.5360e-01,-0.113014
-1.5320e-01,-0.112767
-1.5280e-01,-0.113359
-1.5240e-01,-0.112978
-1.5200e-01,-0.112983
-1.5160e-01,-0.112848
-1.5120e-01,-0.113006
-1.5080e-01,-0.112627
-1.5040e-01,-0.112614
-1.5000e-01,-0.112552
-1.4960e-01,-0.112691
-1.4920e-01,-0.113336
-1.4880e-01,-0.113014
-1.4840e-01,-0.113005
-1.4800e-01,-0.113662
-1.4760e-01,-0.113513
-1.4720e-01,-0.112563
-1.4680e-01,-0.113414
-1.4640e-01,-0.112325
-1.4600e-01,-0.112678
-1.4560e-01,-0.112281
-1.4520e-01,-0.112194
-1.4480e-01,-0.112967
-1.4440e-01,-0.113666
-1.4400e-01,-0.113302
-1.4360e-01,-0.112528
-1.4320e-01,-0.113259
-1.4280e-01,-0.113256
-1.4240e-01,-0.111531
-1.4200e-01,-0.1133
-1.4160e-01,-0.112325
-1.4120e-01,-0.112881
-1.4080e-01,-0.112833
-1.4040e-01,-0.112844
-1.4000e-01,-0.112419
-1.3960e-01,-0.11218
-1.3920e-01,-0.11297
-1.3880e-01,-0.113241
-1.3840e-01,-0.113147
-1.3800e-01,-0.112552
-1.3760e-01,-0.112616
-1.3720e-01,-0.113103
-1.3680e-01,-0.112789
-1.3640e-01,-0.113403
-1.3600e-01,-0.11332
-1.3560e-01,-0.112486
-1.3520e-01,-0.112973
-1.3480e-01,-0.113069
-1.3440e-01,-0.113089
-1.3400e-01,-0.113056
-1.3360e-01,-0.112989
-1.3320e-01,-0.112605
-1.3280e-01,-0.112842
-1.3240e-01,-0.112886
-1.3200e-01,-0.112925
-1.3160e-01,-0.112898
-1.3120e-01,-0.112636
-1.3080e-01,-0.111902
-1.3040e-01,-0.113144
-1.3000e-01,-0.112291
-1.2960e-01,-0.112331
-1.2920e-01,-0.113231
-1.2880e-01,-0.113275
-1.2840e-01,-0.113423
-1.2800e-01,-0.112809
-1.2760e-01,-0.112997
-1.2720e-01,-0.113308
-1.2680e-01,-0.112838
-1.2640e-01,-0.11338
-1.2600e-01,-0.112775
-1.2560e-01,-0.112769
-1.2520e-01,-0.112877
-1.2480e-01,-0.112819
-1.2440e-01,-0.112844
-1.2400e-01,-0.113025
-1.2360e-01,-0.11305
-1.2320e-01,-0.112908
-1.2280e-01,-0.113491
-1.2240e-01,-0.112461
-1.2200e-01,-0.113513
-1.2160e-01,-0.113023
-1.2120e-01,-0.112858
-1.2080e-01,-0.112672
-1.2040e-01,-0.11308
-1.2000e-01,-0.113416
-1.1960e-01,-0.112616
-1.1920e-01,-0.112647
-1.1880e-01,-0.112738
-1.1840e-01,-0.112848
-1.1800e-01,-0.113189
-1.1760e-01,-0.113016
-1.1720e-01,-0.113138
-1.1680e-01,-0.113088
-1.1640e-01,-0.112488
-1.1600e-01,-0.112391
-1.1560e-01,-0.11338
-1.1520e-01,-0.112778
-1.1480e-01,-0.113766
-1.1440e-01,-0.113002
-1.1400e-01,-0.113495
-1.1360e-01,-0.113133
-1.1320e-01,-0.112322
-1.1280e-01,-0.112691
-1.1240e-01,-0.112703
-1.1200e-01,-0.112936
-1.1160e-01,-0.112855
-1.1120e-01,-0.112888
-1.1080e-01,-0.112798
-1.1040e-01,-0.113458
-1.1000e-01,-0.113191
-1.0960e-01,-0.112516
-1.0920e-01,-0.112595
-1.0880e-01,-0.112873
-1.0840e-01,-0.112928
-1.0800e-01,-0.112447
-1.0760e-01,-0.112669
-1.0720e-01,-0.1131
-1.0680e-01,-0.112852
-1.0640e-01,-0.112708
-1.0600e-01,-0.111623
-1.0560e-01,-0.112711
-1.0520e-01,-0.112627
-1.0480e-01,-0.11243
-1.0440e-01,-0.11252
-1.0400e-01,-0.11328
-1.0360e-01,-0.113416
-1.0320e-01,-0.112606
-1.0280e-01,-0.112741
-1.0240e-01,-0.112767
-1.0200e-01,-0.113048
-1.0160e-01,-0.112711
-1.0120e-01,-0.113316
-1.0080e-01,-0.112661
-1.0040e-01,-0.112127
-1.0000e-01,-0.112247
-9.9600e-02,-0.113241
-9.9200e-02,-0.112441
-9.8800e-02,-0.113138
-9.8400e-02,-0.113064
-9.8000e-02,-0.113036
-9.7600e-02,-0.113047
-9.7200e-02,-0.11267
-9.6800e-02,-0.11293
-9.6400e-02,-0.112638
-9.6000e-02,-0.112752
-9.5600e-02,-0.112741
-9.5200e-02,-0.113178
-9.4800e-02,-0.112798
-9.4400e-02,-0.112822
-9.4000e-02,-0.113392
-9.3600e-02,-0.113003
-9.3200e-02,-0.112998
-9.2800e-02,-0.111531
-9.2400e-02,-0.112575
-9.2000e-02,-0.113069
-9.1600e-02,-0.112919
-9.1200e-02,-0.113078
-9.0800e-02,-0.113136
-9.0400e-02,-0.112552
-9.0000e-02,-0.112761
-8.9600e-02,-0.112841
-8.9200e-02,-0.112619
-8.8800e-02,-0.112766
-8.8400e-02,-0.112764
-8.8000e-02,-0.112442
-8.7600e-02,-0.112277
-8.7200e-02,-0.112475
-8.6800e-02,-0.112678
-8.6400e-02,-0.1127
-8.6000e-02,-0.112206
-8.5600e-02,-0.112641
-8.5200e-02,-0.112514
-8.4800e-02,-0.112433
-8.4400e-02,-0.112606
-8.4000e-02,-0.11243
-8.3600e-02,-0.112572
-8.3200e-02,-0.112405
-8.2800e-02,-0.112645
-8.2400e-02,-0.112238
-8.2000e-02,-0.113195
-8.1600e-02,-0.11293
-8.1200e-02,-0.113189
-8.0800e-02,-0.112452
-8.0400e-02,-0.11263
-8.0000e-02,-0.11285
-7.9600e-02,-0.112486
-7.9200e-02,-0.113253
-7.8800e-02,-0.11235
-7.8400e-02,-0.112655
-7.8000e-02,-0.112434
-7.7600e-02,-0.113147
-7.7200e-02,-0.112545
-7.6800e-02,-0.112963
-7.6400e-02,-0.113397
-7.6000e-02,-0.112044
-7.5600e-02,-0.113511
-7.5200e-02,-0.112766
-7.4800e-02,-0.112733
-7.4400e-02,-0.11238
-7.4000e-02,-0.113158
-7.3600e-02,-0.113241
-7.3200e-02,-0.113039
-7.2800e-02,-0.113605
-7.2400e-02,-0.113162
-7.2000e-02,-0.112548
-7.1600e-02,-0.112517
-7.1200e-02,-0.112344
-7.0800e-02,-0.112077
-7.0400e-02,-0.112706
-7.0000e-02,-0.112766
-6.9600e-02,-0.113091
-6.9200e-02,-0.113166
-6.8800e-02,-0.1129
-6.8400e-02,-0.113003
-6.8000e-02,-0.112669
-6.7600e-02,-0.112716
-6.7200e-02,-0.112914
-6.6800e-02,-0.113675
-6.6400e-02,-0.113142
-6.6000e-02,-0.112713
-6.5600e-02,-0.113555
-6.5200e-02,-0.112941
-6.4800e-02,-0.113178
-6.4400e-02,-0.112395
-6.4000e-02,-0.112148
-6.3600e-02,-0.113748
-6.3200e-02,-0.113264
-6.2800e-02,-0.113066
-6.2400e-02,-0.112528
-6.2000e-02,-0.11247
-6.1600e-02,-0.113114
-6.1200e-02,-0.1133
-6.0800e-02,-0.11275
-6.0400e-02,-0.113016
-6.0000e-02,-0.113138
-5.9600e-02,-0.11232
-5.9200e-02,-0.112725
-5.8800e-02,-0.112595
-5.8400e-02,-0.11268
-5.8000e-02,-0.112723
-5.7600e-02,-0.112364
-5.7200e-02,-0.113208
-5.6800e-02,-0.112844
-5.6400e-02,-0.112283
-5.6000e-02,-0.112745
-5.5600e-02,-0.112791
-5.5200e-02,-0.112386
-5.4800e-02,-0.113642
-5.4400e-02,-0.113444
-5.4000e-02,-0.112581
-5.3600e-02,-0.112409
-5.3200e-02,-0.112628
-5.2800e-02,-0.113045
-5.2400e-02,-0.113081
-5.2000e-02,-0.112816
-5.1600e-02,-0.112841
-5.1200e-02,-0.112627
-5.0800e-02,-0.1132
-5.0400e-02,-0.112109
-5.0000e-02,-0.112634
-4.9600e-02,-0.112755
-4.9200e-02,-0.113205
-4.8800e-02,-0.112767
-4.8400e-02,-0.112884
-4.8000e-02,-0.113044
-4.7600e-02,-0.113156
-4.7200e-02,-0.112195
-4.6800e-02,-0.113456
-4.6400e-02,-0.113116
-4.6000e-02,-0.113211
-4.5600e-02,-0.112872
-4.5200e-02,-0.113092
-4.4800e-02,-0.113111
-4.4400e-02,-0.113184
-4.4000e-02,-0.112906
-4.3600e-02,-0.112016
-4.3200e-02,-0.113037
-4.2800e-02,-0.113098
-4.2400e-02,-0.112453
-4.2000e-02,-0.112878
-4.1600e-02,-0.112623
-4.1200e-02,-0.11297
-4.0800e-02,-0.112809
-4.0400e-02,-0.112778
-4.0000e-02,-0.112439
-3.9600e-02,-0.112919
